info face="Walibi0615" size=72 bold=0 italic=0 charset="" unicode=1 stretchH=100 smooth=1 aa=2 padding=3,3,3,3 spacing=1,1 outline=0
common lineHeight=72 base=58 scaleW=512 scaleH=512 pages=1 packed=0 alphaChnl=1 redChnl=0 greenChnl=0 blueChnl=0
page id=0 file="walibi_72_0_selected.png"
chars count=95
char id=32   x=495   y=161   width=8     height=7     xoffset=-3    yoffset=68    xadvance=20    page=0  chnl=15
char id=33   x=157   y=272   width=22    height=50    xoffset=0     yoffset=11    xadvance=22    page=0  chnl=15
char id=34   x=0     y=366   width=34    height=26    xoffset=0     yoffset=11    xadvance=33    page=0  chnl=15
char id=35   x=368   y=55    width=41    height=53    xoffset=0     yoffset=12    xadvance=41    page=0  chnl=15
char id=36   x=188   y=0     width=41    height=59    xoffset=-2    yoffset=7     xadvance=38    page=0  chnl=15
char id=37   x=56    y=116   width=54    height=52    xoffset=-2    yoffset=11    xadvance=51    page=0  chnl=15
char id=38   x=264   y=59    width=54    height=53    xoffset=-2    yoffset=11    xadvance=49    page=0  chnl=15
char id=39   x=59    y=366   width=23    height=26    xoffset=0     yoffset=11    xadvance=21    page=0  chnl=15
char id=40   x=165   y=0     width=22    height=60    xoffset=-1    yoffset=10    xadvance=21    page=0  chnl=15
char id=41   x=142   y=0     width=22    height=60    xoffset=0     yoffset=10    xadvance=21    page=0  chnl=15
char id=42   x=343   y=313   width=37    height=36    xoffset=-2    yoffset=9     xadvance=33    page=0  chnl=15
char id=43   x=381   y=309   width=32    height=31    xoffset=0     yoffset=20    xadvance=31    page=0  chnl=15
char id=44   x=35    y=366   width=23    height=26    xoffset=0     yoffset=40    xadvance=22    page=0  chnl=15
char id=45   x=106   y=366   width=25    height=18    xoffset=0     yoffset=26    xadvance=24    page=0  chnl=15
char id=46   x=83    y=366   width=22    height=21    xoffset=0     yoffset=40    xadvance=22    page=0  chnl=15
char id=47   x=247   y=0     width=30    height=58    xoffset=-3    yoffset=9     xadvance=22    page=0  chnl=15
char id=48   x=101   y=225   width=47    height=50    xoffset=-2    yoffset=11    xadvance=43    page=0  chnl=15
char id=49   x=481   y=55    width=29    height=52    xoffset=-3    yoffset=10    xadvance=25    page=0  chnl=15
char id=50   x=415   y=214   width=41    height=50    xoffset=-3    yoffset=11    xadvance=35    page=0  chnl=15
char id=51   x=41    y=276   width=38    height=50    xoffset=-3    yoffset=11    xadvance=33    page=0  chnl=15
char id=52   x=201   y=169   width=48    height=51    xoffset=-2    yoffset=11    xadvance=43    page=0  chnl=15
char id=53   x=0     y=276   width=40    height=50    xoffset=-3    yoffset=11    xadvance=35    page=0  chnl=15
char id=54   x=298   y=166   width=47    height=51    xoffset=-2    yoffset=10    xadvance=43    page=0  chnl=15
char id=55   x=195   y=221   width=44    height=50    xoffset=-3    yoffset=12    xadvance=37    page=0  chnl=15
char id=56   x=149   y=221   width=45    height=50    xoffset=-2    yoffset=11    xadvance=42    page=0  chnl=15
char id=57   x=159   y=116   width=47    height=52    xoffset=-2    yoffset=11    xadvance=43    page=0  chnl=15
char id=58   x=320   y=313   width=22    height=38    xoffset=0     yoffset=23    xadvance=22    page=0  chnl=15
char id=59   x=215   y=272   width=23    height=43    xoffset=-1    yoffset=23    xadvance=22    page=0  chnl=15
char id=60   x=469   y=304   width=22    height=28    xoffset=0     yoffset=24    xadvance=22    page=0  chnl=15
char id=61   x=414   y=305   width=31    height=30    xoffset=0     yoffset=24    xadvance=30    page=0  chnl=15
char id=62   x=446   y=304   width=22    height=28    xoffset=0     yoffset=24    xadvance=22    page=0  chnl=15
char id=63   x=80    y=276   width=38    height=50    xoffset=-2    yoffset=11    xadvance=35    page=0  chnl=15
char id=64   x=319   y=56    width=48    height=53    xoffset=-2    yoffset=18    xadvance=47    page=0  chnl=15
char id=65   x=409   y=109   width=56    height=51    xoffset=-3    yoffset=11    xadvance=49    page=0  chnl=15
char id=66   x=240   y=221   width=44    height=50    xoffset=0     yoffset=11    xadvance=42    page=0  chnl=15
char id=67   x=346   y=162   width=44    height=51    xoffset=-2    yoffset=11    xadvance=40    page=0  chnl=15
char id=68   x=103   y=169   width=48    height=51    xoffset=0     yoffset=11    xadvance=45    page=0  chnl=15
char id=69   x=435   y=161   width=36    height=51    xoffset=0     yoffset=11    xadvance=34    page=0  chnl=15
char id=70   x=119   y=276   width=37    height=50    xoffset=0     yoffset=11    xadvance=33    page=0  chnl=15
char id=71   x=0     y=225   width=52    height=50    xoffset=-2    yoffset=12    xadvance=48    page=0  chnl=15
char id=72   x=111   y=116   width=47    height=52    xoffset=0     yoffset=10    xadvance=47    page=0  chnl=15
char id=73   x=464   y=0     width=22    height=54    xoffset=0     yoffset=7     xadvance=22    page=0  chnl=15
char id=74   x=309   y=0     width=34    height=55    xoffset=-3    yoffset=7     xadvance=30    page=0  chnl=15
char id=75   x=161   y=61    width=51    height=54    xoffset=0     yoffset=8     xadvance=47    page=0  chnl=15
char id=76   x=410   y=55    width=35    height=53    xoffset=0     yoffset=9     xadvance=32    page=0  chnl=15
char id=77   x=340   y=110   width=68    height=51    xoffset=-2    yoffset=10    xadvance=64    page=0  chnl=15
char id=78   x=56    y=61    width=52    height=54    xoffset=0     yoffset=8     xadvance=51    page=0  chnl=15
char id=79   x=0     y=173   width=53    height=51    xoffset=-2    yoffset=11    xadvance=50    page=0  chnl=15
char id=80   x=466   y=109   width=44    height=51    xoffset=0     yoffset=11    xadvance=40    page=0  chnl=15
char id=81   x=0     y=65    width=55    height=54    xoffset=-2    yoffset=12    xadvance=52    page=0  chnl=15
char id=82   x=152   y=169   width=48    height=51    xoffset=0     yoffset=12    xadvance=44    page=0  chnl=15
char id=83   x=373   y=214   width=41    height=50    xoffset=-2    yoffset=11    xadvance=38    page=0  chnl=15
char id=84   x=457   y=213   width=40    height=50    xoffset=-3    yoffset=11    xadvance=32    page=0  chnl=15
char id=85   x=250   y=169   width=47    height=51    xoffset=-1    yoffset=10    xadvance=45    page=0  chnl=15
char id=86   x=407   y=0     width=56    height=54    xoffset=-3    yoffset=8     xadvance=49    page=0  chnl=15
char id=87   x=344   y=0     width=62    height=54    xoffset=-3    yoffset=9     xadvance=55    page=0  chnl=15
char id=88   x=0     y=120   width=55    height=52    xoffset=-3    yoffset=9     xadvance=48    page=0  chnl=15
char id=89   x=109   y=61    width=51    height=54    xoffset=-3    yoffset=8     xadvance=44    page=0  chnl=15
char id=90   x=54    y=173   width=48    height=51    xoffset=-2    yoffset=10    xadvance=43    page=0  chnl=15
char id=91   x=92    y=0     width=24    height=60    xoffset=0     yoffset=9     xadvance=23    page=0  chnl=15
char id=92   x=278   y=0     width=30    height=58    xoffset=-3    yoffset=9     xadvance=22    page=0  chnl=15
char id=93   x=117   y=0     width=24    height=60    xoffset=0     yoffset=9     xadvance=23    page=0  chnl=15
char id=94   x=492   y=304   width=17    height=18    xoffset=0     yoffset=27    xadvance=16    page=0  chnl=15
char id=95   x=184   y=362   width=41    height=14    xoffset=0     yoffset=57    xadvance=41    page=0  chnl=15
char id=96   x=132   y=366   width=23    height=18    xoffset=-1    yoffset=9     xadvance=21    page=0  chnl=15
char id=97   x=88    y=327   width=43    height=38    xoffset=-2    yoffset=23    xadvance=41    page=0  chnl=15
char id=98   x=296   y=113   width=43    height=52    xoffset=0     yoffset=9     xadvance=41    page=0  chnl=15
char id=99   x=254   y=313   width=33    height=38    xoffset=-2    yoffset=23    xadvance=28    page=0  chnl=15
char id=100  x=252   y=115   width=43    height=52    xoffset=-2    yoffset=9     xadvance=41    page=0  chnl=15
char id=101  x=176   y=323   width=42    height=38    xoffset=-2    yoffset=23    xadvance=38    page=0  chnl=15
char id=102  x=446   y=55    width=34    height=53    xoffset=-2    yoffset=9     xadvance=29    page=0  chnl=15
char id=103  x=391   y=162   width=43    height=51    xoffset=-2    yoffset=23    xadvance=41    page=0  chnl=15
char id=104  x=207   y=116   width=44    height=52    xoffset=0     yoffset=9     xadvance=41    page=0  chnl=15
char id=105  x=472   y=161   width=22    height=51    xoffset=0     yoffset=10    xadvance=21    page=0  chnl=15
char id=106  x=0     y=0     width=31    height=64    xoffset=-9    yoffset=10    xadvance=21    page=0  chnl=15
char id=107  x=213   y=60    width=50    height=54    xoffset=0     yoffset=8     xadvance=47    page=0  chnl=15
char id=108  x=487   y=0     width=22    height=54    xoffset=0     yoffset=8     xadvance=21    page=0  chnl=15
char id=109  x=442   y=265   width=66    height=38    xoffset=0     yoffset=23    xadvance=65    page=0  chnl=15
char id=110  x=0     y=327   width=43    height=38    xoffset=0     yoffset=23    xadvance=43    page=0  chnl=15
char id=111  x=44    y=327   width=43    height=38    xoffset=-2    yoffset=23    xadvance=39    page=0  chnl=15
char id=112  x=329   y=218   width=43    height=50    xoffset=0     yoffset=23    xadvance=41    page=0  chnl=15
char id=113  x=285   y=221   width=43    height=50    xoffset=-2    yoffset=23    xadvance=41    page=0  chnl=15
char id=114  x=288   y=313   width=31    height=38    xoffset=0     yoffset=23    xadvance=28    page=0  chnl=15
char id=115  x=219   y=316   width=34    height=38    xoffset=-2    yoffset=23    xadvance=30    page=0  chnl=15
char id=116  x=180   y=272   width=34    height=43    xoffset=-3    yoffset=18    xadvance=30    page=0  chnl=15
char id=117  x=132   y=327   width=43    height=38    xoffset=-1    yoffset=23    xadvance=42    page=0  chnl=15
char id=118  x=304   y=272   width=47    height=40    xoffset=-3    yoffset=22    xadvance=39    page=0  chnl=15
char id=119  x=239   y=272   width=64    height=40    xoffset=-3    yoffset=22    xadvance=57    page=0  chnl=15
char id=120  x=352   y=269   width=49    height=39    xoffset=-3    yoffset=23    xadvance=41    page=0  chnl=15
char id=121  x=53    y=225   width=47    height=50    xoffset=-3    yoffset=23    xadvance=39    page=0  chnl=15
char id=122  x=402   y=265   width=39    height=39    xoffset=-3    yoffset=22    xadvance=34    page=0  chnl=15
char id=123  x=32    y=0     width=29    height=60    xoffset=0     yoffset=9     xadvance=28    page=0  chnl=15
char id=124  x=230   y=0     width=16    height=59    xoffset=2     yoffset=8     xadvance=20    page=0  chnl=15
char id=125  x=62    y=0     width=29    height=60    xoffset=0     yoffset=9     xadvance=28    page=0  chnl=15
char id=126  x=156   y=366   width=27    height=15    xoffset=0     yoffset=28    xadvance=27    page=0  chnl=15
